SYMBOL	POS_1	POS_2	POS_3	POS_4	POS_5	POS_6	POS_7
A	0.395328794327259	0.00770456801958239	0.976886295941253	0.976886295941253	0.00770456801958239	0.00770456801958239	0.321131137315606
C	0.105513888782987	0.00770456801958239	0.00770456801958239	0.00770456801958239	0.00770456801958239	0.00770456801958239	0.143803698039328
G	0.105513888782987	0.00770456801958239	0.00770456801958239	0.00770456801958239	0.00770456801958239	0.00770456801958239	0.478370946513662
T	0.393643428106767	0.976886295941253	0.00770456801958239	0.00770456801958239	0.976886295941253	0.976886295941253	0.0566942181314034
