SYMBOL	POS_1	POS_2	POS_3	POS_4	POS_5	POS_6	POS_7
A	0.0954576704263214	0.00553639134794624	0.00553639134794623	0.00553639134794624	0.00553639134794623	0.00553639134794624	0.0297978820566443
C	0.0954576704263214	0.00553639134794624	0.00553639134794623	0.00553639134794624	0.00553639134794623	0.00553639134794624	0.0297978820566443
G	0.159676013947132	0.806902135883388	0.00553639134794623	0.737702141058255	0.00553639134794623	0.813240497478362	0.116701449097366
T	0.649408645200225	0.18202508142072	0.983390825956161	0.251225076245853	0.983390825956161	0.175686719825745	0.823702786789345
