SYMBOL	POS_1	POS_2	POS_3	POS_4	POS_5	POS_6	POS_7
A	0.737562982515012	0.191432560047674	0.96665868689	0.110283262656392	0.884128279722086	0.274028734347808	0.716364899882451
C	0.146785195721864	0.686074287388924	0.0111137710366666	0.67147398403595	0.0111137710366667	0.703743723578858	0.213975590029604
G	0.057825910881562	0.0111137710366667	0.0111137710366666	0.0111137710366666	0.0111137710366667	0.0111137710366667	0.0348297550439723
T	0.057825910881562	0.111379381526735	0.0111137710366666	0.20712898227099	0.0936441782045807	0.0111137710366667	0.0348297550439723
