SYMBOL	POS_1	POS_2	POS_3	POS_4	POS_5	POS_6	POS_7
A	0.00420602774460848	0.987381916766175	0.00420602774460848	0.484072108189563	0.00420602774460848	0.987381916766175	0.292304275786357
C	0.00420602774460848	0.00420602774460848	0.273316719828419	0.00420602774460848	0.00420602774460848	0.00420602774460848	0.173179877179469
G	0.00420602774460848	0.00420602774460848	0.00420602774460848	0.50751583632122	0.00420602774460848	0.00420602774460848	0.435984246092506
T	0.987381916766174	0.00420602774460848	0.718271224682364	0.00420602774460848	0.987381916766174	0.00420602774460848	0.0985316009416679
