SYMBOL	POS_1	POS_2	POS_3	POS_4	POS_5	POS_6	POS_7
A	0.254521270272315	0.00767121115806592	0.0781995777835166	0.0076712111580659	0.0076712111580659	0.0323284807041537	0.101046036734389
C	0.0800809822885177	0.906457999900352	0.00767121115806592	0.976986366525802	0.0076712111580659	0.903014557887539	0.101046036734389
G	0.153392054278045	0.00767121115806592	0.906457999900352	0.0076712111580659	0.976986366525802	0.0323284807041537	0.696861889796833
T	0.512005693161122	0.0781995777835166	0.00767121115806592	0.0076712111580659	0.0076712111580659	0.0323284807041537	0.101046036734389
