SYMBOL	POS_1	POS_2	POS_3	POS_4	POS_5	POS_6	POS_7
A	0.0547719354054048	0.00643115088185576	0.00643115088185576	0.00643115088185575	0.00643115088185575	0.00643115088185575	0.0564697131774386
C	0.0547719354054048	0.980706547354433	0.00643115088185576	0.893047558649862	0.0940901395864266	0.221714308370212	0.234661254072056
G	0.835684193783785	0.00643115088185576	0.980706547354433	0.0940901395864266	0.893047558649862	0.678504735521865	0.570650721076631
T	0.0547719354054048	0.00643115088185576	0.00643115088185576	0.00643115088185575	0.00643115088185575	0.093349805226068	0.138218311673874
