SYMBOL	POS_1	POS_2	POS_3	POS_4	POS_5	POS_6	POS_7
A	0.69288052586928	0.0106054833506948	0.968183549947915	0.968183549947915	0.0106054833506948	0.326700438837695	0.483254129569264
C	0.0343792333232974	0.968183549947915	0.0106054833506948	0.0106054833506948	0.968183549947915	0.0342729167636879	0.107242310069665
G	0.0343792333232974	0.0106054833506948	0.0106054833506948	0.0106054833506948	0.0106054833506948	0.604753727634929	0.302261250291407
T	0.238361007484125	0.0106054833506948	0.0106054833506948	0.0106054833506948	0.0106054833506948	0.0342729167636879	0.107242310069665
