SYMBOL	POS_1	POS_2	POS_3	POS_4	POS_5	POS_6	POS_7	POS_8
A	0.607397524925148	0.0164197322794406	0.0164197322794406	0.859714962070231	0.0164197322794406	0.582607239589466	0.304847573119426	0.320765809149646
C	0.130867491691617	0.0164197322794406	0.0164197322794406	0.0164197322794406	0.0164197322794406	0.0164197322794406	0.0164197322794407	0.135637620289049
G	0.130867491691617	0.950740803161678	0.950740803161678	0.0164197322794406	0.950740803161678	0.105193403226121	0.38970958013046	0.407958950272257
T	0.130867491691617	0.0164197322794406	0.0164197322794406	0.107445573370888	0.0164197322794406	0.295779624904973	0.289023114470673	0.135637620289049
