SYMBOL	POS_1	POS_2	POS_3	POS_4	POS_5	POS_6	POS_7	POS_8
A	0.323700269936675	0.0102782888129944	0.78253533920192	0.969165133561017	0.0102782888129944	0.0102782888129944	0.637314589784352	0.310646439255523
C	0.12960129364068	0.0102782888129944	0.0102782888129944	0.0102782888129944	0.0102782888129944	0.0102782888129944	0.0584216346435711	0.130681477982317
G	0.222720112725903	0.969165133561017	0.108149347920531	0.0102782888129944	0.0102782888129944	0.969165133561017	0.14850251616161	0.334146647421779
T	0.323978323696742	0.0102782888129944	0.0990370240645541	0.0102782888129944	0.969165133561017	0.0102782888129944	0.155761259410467	0.224525435340381
