SYMBOL	POS_1	POS_2	POS_3	POS_4	POS_5	POS_6	POS_7
A	0.13465371561564	0.00575932440469524	0.00575932440469524	0.00575932440469524	0.00575932440469524	0.00575932440469526	0.0529684847877558
C	0.130355701059165	0.00575932440469524	0.00575932440469524	0.00575932440469524	0.0980410201048184	0.32779201262323	0.717499156796992
G	0.0534142564213749	0.00575932440469524	0.00575932440469524	0.00575932440469524	0.00575932440469524	0.00575932440469526	0.0529684847877558
T	0.68157632690382	0.982722026785914	0.982722026785914	0.982722026785914	0.890440331085791	0.660689338567379	0.176563873627497
