SYMBOL	POS_1	POS_2	POS_3	POS_4	POS_5	POS_6	POS_7	POS_8
A	0.1432819834532	0.00431096746804971	0.00431096746804971	0.176482893745635	0.00431096746804971	0.00431096746804971	0.144333479660122	0.114291846668292
C	0.239832570353528	0.00431096746804971	0.987067097595851	0.0043109674680497	0.00431096746804971	0.00431096746804971	0.66195546807095	0.586361225266356
G	0.228688389554179	0.987067097595851	0.00431096746804971	0.0043109674680497	0.987067097595851	0.987067097595851	0.0279730141479993	0.185055081397059
T	0.388197056639094	0.00431096746804971	0.00431096746804971	0.814895171318265	0.00431096746804971	0.00431096746804971	0.165738038120928	0.114291846668292
