SYMBOL	POS_1	POS_2	POS_3	POS_4	POS_5	POS_6	POS_7
A	0.0778702591415171	0.766389222575449	0.138763849150136	0.00801341097781165	0.251190480681918	0.191908867098543	0.721718329547568
C	0.0778702591415171	0.0778702591415171	0.054391361588722	0.00801341097781165	0.0870075042867762	0.00801341097781166	0.031953713997435
G	0.0778702591415171	0.0778702591415171	0.75245342767242	0.975959767066565	0.131114095341133	0.00801341097781166	0.214374242457562
T	0.766389222575449	0.0778702591415171	0.054391361588722	0.00801341097781165	0.530687919690172	0.792064310945834	0.031953713997435
