SYMBOL	POS_1	POS_2	POS_3	POS_4	POS_5	POS_6	POS_7
A	0.155514320573884	0.00575754871096981	0.00575754871096981	0.888479903977138	0.100004998600922	0.0298544960896035	0.0772814153707167
C	0.0777418597325003	0.00575754871096981	0.00575754871096981	0.0057575487109698	0.0057575487109698	0.0298544960896035	0.0772814153707167
G	0.689001959961115	0.86661021531638	0.00575754871096981	0.0057575487109698	0.888479903977138	0.910436511731189	0.76815575388785
T	0.0777418597325003	0.121874687261681	0.982727353867091	0.100004998600922	0.0057575487109698	0.0298544960896035	0.0772814153707167
