SYMBOL	POS_1	POS_2	POS_3	POS_4	POS_5	POS_6	POS_7
A	0.209821692633504	0.00629035802395789	0.00629035802395789	0.0062903580239579	0.00629035802395789	0.0301774779211264	0.0301774779211263
C	0.105876175416721	0.981128925928126	0.00629035802395789	0.83702889420222	0.00629035802395789	0.763928879502481	0.108504000776993
G	0.274772071004205	0.00629035802395789	0.981128925928126	0.150390389749864	0.981128925928126	0.108504000776993	0.831141043380755
T	0.40953006094557	0.00629035802395789	0.00629035802395789	0.0062903580239579	0.00629035802395789	0.0973896417993992	0.0301774779211263
