SYMBOL	POS_1	POS_2	POS_3	POS_4	POS_5	POS_6	POS_7
A	0.673980962681039	0.134874973975331	0.954431884287655	0.954431884287655	0.0151893719041151	0.59424796362975	0.656270053414294
C	0.108673012439654	0.0386005490582202	0.0151893719041151	0.0151893719041151	0.0151893719041151	0.138506874569785	0.173627296806352
G	0.108673012439654	0.0386005490582202	0.0151893719041151	0.0151893719041151	0.0151893719041151	0.0384781228131512	0.0850513248896773
T	0.108673012439654	0.787923927908228	0.0151893719041151	0.0151893719041151	0.954431884287655	0.228767038987314	0.0850513248896773
