SYMBOL	POS_1	POS_2	POS_3	POS_4	POS_5	POS_6	POS_7
A	0.0557478958963206	0.0294872868844302	0.0991002612469569	0.760796001706944	0.00582956041284347	0.00582956041284349	0.136873671982401
C	0.120904894195844	0.0917731362967861	0.0697193123763166	0.0697193123763167	0.0697193123763167	0.0697193123763169	0.136239870964907
G	0.767599314011515	0.849252289934354	0.825350865963883	0.0703844246697817	0.812195563508247	0.918621566797996	0.651528620895713
T	0.0557478958963206	0.0294872868844302	0.00582956041284346	0.0991002612469571	0.112255563702593	0.00582956041284349	0.0753578361569784
