SYMBOL	POS_1	POS_2	POS_3	POS_4	POS_5	POS_6	POS_7
A	0.21764833461765	0.0101956190479046	0.099246325405216	0.0101956190479046	0.0101956190479046	0.0101956190479046	0.0821831261850797
C	0.125438051659044	0.0101956190479046	0.0101956190479046	0.0101956190479046	0.0101956190479046	0.0101956190479046	0.471503208324486
G	0.0343102639281938	0.0101956190479046	0.0101956190479046	0.0101956190479046	0.0101956190479046	0.106243550904968	0.184046685178548
T	0.622603349795112	0.969413142856286	0.880362436498975	0.969413142856286	0.969413142856286	0.873365210999223	0.262266980311887
