SYMBOL	POS_1	POS_2	POS_3	POS_4	POS_5	POS_6	POS_7
A	0.713391244284979	0.39629452817734	0.784814908842305	0.387503541900327	0.575991872555981	0.199370402609399	0.863386255201517
C	0.161112422243071	0.487741561507937	0.0992211808429714	0.298010061075733	0.109521730420078	0.769452882317827	0.105437029725709
G	0.0627481667359749	0.0155883575363872	0.0155883575363872	0.0155883575363872	0.0155883575363871	0.0155883575363872	0.0155883575363872
T	0.0627481667359749	0.100375552778336	0.100375552778336	0.298898039487553	0.298898039487553	0.0155883575363872	0.0155883575363872
