SYMBOL	POS_1	POS_2	POS_3	POS_4	POS_5	POS_6	POS_7
A	0.382354399071077	0.411752334680595	0.0114185916986013	0.0114185916986013	0.965744224904196	0.0114185916986013	0.824112456057535
C	0.105642914752263	0.0350622400984542	0.0114185916986013	0.965744224904196	0.0114185916986013	0.965744224904196	0.058629181314155
G	0.208524085842531	0.0350622400984542	0.965744224904196	0.0114185916986013	0.0114185916986013	0.0114185916986013	0.058629181314155
T	0.303478600334129	0.518123185122497	0.0114185916986013	0.0114185916986013	0.0114185916986013	0.0114185916986013	0.058629181314155
