SYMBOL	POS_1	POS_2	POS_3	POS_4	POS_5	POS_6	POS_7
A	0.586349229070226	0.00658827204219516	0.980235183873414	0.00658827204219516	0.980235183873414	0.00658827204219516	0.253697928835987
C	0.102668217156197	0.00658827204219516	0.00658827204219516	0.896716009560295	0.00658827204219516	0.00658827204219516	0.0539056254719564
G	0.102668217156197	0.00658827204219516	0.00658827204219516	0.00658827204219516	0.00658827204219516	0.00658827204219516	0.638490820220101
T	0.20831433661738	0.980235183873414	0.00658827204219516	0.0901074463553143	0.00658827204219516	0.980235183873414	0.0539056254719564
