SYMBOL	POS_1	POS_2	POS_3	POS_4	POS_5	POS_6	POS_7
A	0.0154999767664875	0.0154999767664875	0.0154999767664875	0.0154999767664875	0.0154999767664875	0.0154999767664875	0.202999279058021
C	0.872016285241516	0.109445644435069	0.0154999767664875	0.0969837612255094	0.953500069700538	0.105480499777482	0.203082249514417
G	0.0154999767664875	0.0154999767664875	0.0154999767664875	0.0154999767664875	0.0154999767664875	0.0154999767664875	0.200842047191702
T	0.0969837612255094	0.859554402031956	0.953500069700537	0.872016285241516	0.0154999767664875	0.863519546689543	0.393076424235861
