SYMBOL	POS_1	POS_2	POS_3	POS_4	POS_5	POS_6	POS_7
A	0.566893660027818	0.78492625750728	0.0982160939543478	0.670093382816604	0.0148599034771094	0.0148599034771094	0.0387436479379775
C	0.173479319745577	0.185353935538502	0.78492625750728	0.0148599034771094	0.955420289568672	0.0148599034771094	0.795005559759508
G	0.0857012411066076	0.0148599034771094	0.101997745061263	0.300186810229177	0.0148599034771094	0.955420289568672	0.0387436479379775
T	0.173925779119997	0.0148599034771094	0.0148599034771094	0.0148599034771094	0.0148599034771094	0.0148599034771094	0.127507144364537
