SYMBOL	POS_1	POS_2	POS_3	POS_4	POS_5	POS_6	POS_7	POS_8
A	0.309232857683408	0.0547681148905765	0.977533056268956	0.977533056268956	0.0074889812436813	0.977533056268956	0.977533056268956	0.232202106035901
C	0.242994777728021	0.754518329841902	0.0074889812436813	0.0074889812436813	0.0074889812436813	0.0074889812436813	0.0074889812436813	0.126122482156586
G	0.231450954158191	0.0547681148905765	0.0074889812436813	0.0074889812436813	0.0074889812436813	0.0074889812436813	0.0074889812436813	0.327418700877899
T	0.216321410430379	0.135945440376945	0.0074889812436813	0.0074889812436813	0.977533056268956	0.0074889812436813	0.0074889812436813	0.314256710929614
