SYMBOL	POS_1	POS_2	POS_3	POS_4	POS_5	POS_6	POS_7	POS_8
A	0.513854969051623	0.0150898654831509	0.954730403550547	0.954730403550547	0.0150898654831509	0.0150898654831509	0.580974300434106	0.207870566678582
C	0.135328961829443	0.0150898654831509	0.0150898654831509	0.0150898654831509	0.0150898654831509	0.0150898654831509	0.0838107082125966	0.455330612595843
G	0.215487107289491	0.954730403550547	0.0150898654831509	0.0150898654831509	0.954730403550547	0.954730403550547	0.175951276807874	0.206925678275058
T	0.135328961829443	0.0150898654831509	0.0150898654831509	0.0150898654831509	0.0150898654831509	0.0150898654831509	0.159263714545423	0.129873142450516
