SYMBOL	POS_1	POS_2	POS_3	POS_4	POS_5	POS_6	POS_7
A	0.412365143035414	0.0145252159500782	0.0145252159500782	0.956424352149765	0.0145252159500782	0.0145252159500782	0.249670933027287
C	0.106883253972496	0.0145252159500782	0.956424352149765	0.0145252159500782	0.0145252159500782	0.0145252159500782	0.425963330967586
G	0.106883253972496	0.956424352149765	0.0145252159500782	0.0145252159500782	0.0145252159500782	0.956424352149765	0.163663669379776
T	0.373868349019595	0.0145252159500782	0.0145252159500782	0.0145252159500782	0.956424352149765	0.0145252159500782	0.160702066625352
