SYMBOL	POS_1	POS_2	POS_3	POS_4	POS_5	POS_6	POS_7
A	0.00988973713293806	0.00988973713293807	0.107238070841028	0.0961095988780563	0.00988973713293807	0.00988973713293807	0.00988973713293809
C	0.113670611163574	0.00988973713293807	0.00988973713293807	0.00988973713293808	0.00988973713293807	0.100592884557407	0.103463605031931
G	0.107291232331297	0.00988973713293807	0.00988973713293807	0.0964640088131828	0.0950463690726768	0.0950463690726768	0.195407187229342
T	0.769148419372191	0.970330788601186	0.872982454893096	0.797536655175823	0.885174156661447	0.794471009236979	0.691239470605789
