SYMBOL	POS_1	POS_2	POS_3	POS_4	POS_5	POS_6	POS_7	POS_8	POS_9	POS_10	POS_11	POS_12	POS_13	POS_14	POS_15	POS_16	POS_17	POS_18
A	0.0998	0.1	0.001	0.9481	0.997	0.997	0.0999	0.001	0.001	0.001	0.001	0.997	0.997	0.001	0.001	0.997	0.05	0.001
C	0.8982	0.8	0.0998	0.0499	0.001	0.001	0.001	0.997	0.997	0.997	0.001	0.001	0.001	0.0499	0.001	0.001	0.2	0.04995
G	0.001	0.05	0.8982	0.001	0.001	0.001	0.44955	0.001	0.001	0.001	0.997	0.001	0.001	0.9481	0.0499	0.001	0.65	0.84915
T	0.001	0.05	0.001	0.001	0.001	0.001	0.44955	0.001	0.001	0.001	0.001	0.001	0.001	0.001	0.9481	0.001	0.1	0.0999
