SYMBOL	POS_1	POS_2	POS_3	POS_4	POS_5	POS_6	POS_7
A	0.0701754385964905	0.997	0.001	0.001	0.997	0.997	0.001
C	0.0350877192982458	0.001	0.997	0.001	0.001	0.001	0.875438596491228
G	0.105263157894739	0.001	0.001	0.001	0.001	0.001	0.001
T	0.789473684210524	0.001	0.001	0.997	0.001	0.001	0.122561403508772
