SYMBOL	POS_1	POS_2	POS_3	POS_4	POS_5	POS_6	POS_7	POS_8	POS_9	POS_10	POS_11	POS_12
A	0.001	0.001	0.001	0.001	0.001	0.997	0.001	0.001	0.001	0.001	0.001	0.001
C	0.001	0.001	0.499	0.001	0.001	0.001	0.001	0.001	0.7485	0.001	0.997	0.997
G	0.001	0.997	0.001	0.997	0.001	0.001	0.001	0.001	0.001	0.001	0.001	0.001
T	0.997	0.001	0.499	0.001	0.997	0.001	0.997	0.997	0.2495	0.997	0.001	0.001
