SYMBOL	POS_1	POS_2	POS_3	POS_4	POS_5	POS_6	POS_7	POS_8
A	0.776222222222224	0.001	0.110888888888888	0.001	0.001	0.997	0.001	0.222222222222222
C	0.001	0.001	0.001	0.001	0.997	0.001	0.997	0.222222222222222
G	0.001	0.001	0.001	0.997	0.001	0.001	0.001	0.111111111111111
T	0.221777777777776	0.997	0.887111111111112	0.001	0.001	0.001	0.001	0.444444444444444
