SYMBOL	POS_1	POS_2	POS_3	POS_4	POS_5	POS_6	POS_7
A	0.817363636363637	0.0907272727272727	0.0907272727272727	0.001	0.001	0.997	0.001
C	0.0908181818181817	0.001	0.001	0.001	0.997	0.001	0.997
G	0.001	0.001	0.001	0.907272727272727	0.001	0.001	0.001
T	0.0908181818181817	0.907272727272727	0.907272727272727	0.0907272727272727	0.001	0.001	0.001
