SYMBOL	POS_1	POS_2	POS_3	POS_4	POS_5	POS_6	POS_7	POS_8	POS_9
A	0.884615384615385	0.0384230769230766	0.0384230769230765	0.806884615384619	0.001	0.730769230769234	0.115269230769234	0.23076923076923	0.461538461538457
C	0.0384615384615382	0.0384230769230766	0.461076923076922	0.153692307692304	0.001	0.0769230769230774	0.001	0.0384615384615381	0.0769230769230765
G	0.0384615384615382	0.922153846153847	0.499500000000001	0.0384230769230765	0.997	0.0384615384615382	0.845307692307689	0.19230769230769	0.115384615384619
T	0.0384615384615382	0.001	0.001	0.001	0.001	0.153846153846151	0.0384230769230762	0.538461538461541	0.346153846153848
